<svg width="124" height="124" viewBox="0 0 124 124" fill="none" xmlns="http://www.w3.org/2000/svg">
<path d="M2 122L122 2" stroke="#8F668A" stroke-width="3.2" stroke-linecap="round" stroke-linejoin="round"/>
<path d="M2 2H122V122" stroke="#8F668A" stroke-width="3.2" stroke-linecap="round" stroke-linejoin="round"/>
</svg>
