<svg width="296" height="200" viewBox="0 0 296 200" fill="none" xmlns="http://www.w3.org/2000/svg">
<g clip-path="url(#clip0)">
<rect x="270.555" width="4.44444" height="4.44444" rx="2.22222" transform="rotate(90 270.555 0)" fill="#CFD9E2"/>
<rect x="230.555" width="4.44444" height="4.44444" rx="2.22222" transform="rotate(90 230.555 0)" fill="#CFD9E2"/>
<rect x="190.555" width="4.44444" height="4.44444" rx="2.22222" transform="rotate(90 190.555 0)" fill="#CFD9E2"/>
<rect x="150.555" width="4.44444" height="4.44444" rx="2.22222" transform="rotate(90 150.555 0)" fill="#CFD9E2"/>
<rect x="110.555" width="4.44444" height="4.44444" rx="2.22222" transform="rotate(90 110.555 0)" fill="#CFD9E2"/>
<rect x="70.5547" width="4.44444" height="4.44444" rx="2.22222" transform="rotate(90 70.5547 0)" fill="#CFD9E2"/>
<rect x="30.5547" width="4.44444" height="4.44444" rx="2.22222" transform="rotate(90 30.5547 0)" fill="#CFD9E2"/>
<rect x="270.555" y="48.8887" width="4.44444" height="4.44444" rx="2.22222" transform="rotate(90 270.555 48.8887)" fill="#CFD9E2"/>
<rect x="230.555" y="48.8887" width="4.44444" height="4.44444" rx="2.22222" transform="rotate(90 230.555 48.8887)" fill="#CFD9E2"/>
<rect x="190.555" y="48.8887" width="4.44444" height="4.44444" rx="2.22222" transform="rotate(90 190.555 48.8887)" fill="#CFD9E2"/>
<rect x="150.555" y="48.8887" width="4.44444" height="4.44444" rx="2.22222" transform="rotate(90 150.555 48.8887)" fill="#CFD9E2"/>
<rect x="110.555" y="48.8887" width="4.44444" height="4.44444" rx="2.22222" transform="rotate(90 110.555 48.8887)" fill="#CFD9E2"/>
<rect x="70.5547" y="48.8887" width="4.44444" height="4.44444" rx="2.22222" transform="rotate(90 70.5547 48.8887)" fill="#CFD9E2"/>
<rect x="30.5547" y="48.8887" width="4.44444" height="4.44444" rx="2.22222" transform="rotate(90 30.5547 48.8887)" fill="#CFD9E2"/>
<rect x="270.555" y="97.7778" width="4.44444" height="4.44444" rx="2.22222" transform="rotate(90 270.555 97.7778)" fill="#CFD9E2"/>
<rect x="230.555" y="97.7778" width="4.44444" height="4.44444" rx="2.22222" transform="rotate(90 230.555 97.7778)" fill="#CFD9E2"/>
<rect x="190.555" y="97.7778" width="4.44444" height="4.44444" rx="2.22222" transform="rotate(90 190.555 97.7778)" fill="#CFD9E2"/>
<rect x="150.555" y="97.7778" width="4.44444" height="4.44444" rx="2.22222" transform="rotate(90 150.555 97.7778)" fill="#CFD9E2"/>
<rect x="110.555" y="97.7778" width="4.44444" height="4.44444" rx="2.22222" transform="rotate(90 110.555 97.7778)" fill="#CFD9E2"/>
<rect x="70.5547" y="97.7778" width="4.44444" height="4.44444" rx="2.22222" transform="rotate(90 70.5547 97.7778)" fill="#CFD9E2"/>
<rect x="30.5547" y="97.7778" width="4.44444" height="4.44444" rx="2.22222" transform="rotate(90 30.5547 97.7778)" fill="#CFD9E2"/>
<rect x="270.555" y="146.667" width="4.44444" height="4.44444" rx="2.22222" transform="rotate(90 270.555 146.667)" fill="#CFD9E2"/>
<rect x="230.555" y="146.667" width="4.44444" height="4.44444" rx="2.22222" transform="rotate(90 230.555 146.667)" fill="#CFD9E2"/>
<rect x="190.555" y="146.667" width="4.44444" height="4.44444" rx="2.22222" transform="rotate(90 190.555 146.667)" fill="#CFD9E2"/>
<rect x="150.555" y="146.667" width="4.44444" height="4.44444" rx="2.22222" transform="rotate(90 150.555 146.667)" fill="#CFD9E2"/>
<rect x="110.555" y="146.667" width="4.44444" height="4.44444" rx="2.22222" transform="rotate(90 110.555 146.667)" fill="#CFD9E2"/>
<rect x="70.5547" y="146.667" width="4.44444" height="4.44444" rx="2.22222" transform="rotate(90 70.5547 146.667)" fill="#CFD9E2"/>
<rect x="30.5547" y="146.667" width="4.44444" height="4.44444" rx="2.22222" transform="rotate(90 30.5547 146.667)" fill="#CFD9E2"/>
<rect x="270.555" y="195.556" width="4.44444" height="4.44444" rx="2.22222" transform="rotate(90 270.555 195.556)" fill="#CFD9E2"/>
<rect x="230.555" y="195.556" width="4.44444" height="4.44444" rx="2.22222" transform="rotate(90 230.555 195.556)" fill="#CFD9E2"/>
<rect x="190.555" y="195.556" width="4.44444" height="4.44444" rx="2.22222" transform="rotate(90 190.555 195.556)" fill="#CFD9E2"/>
<rect x="150.555" y="195.556" width="4.44444" height="4.44444" rx="2.22222" transform="rotate(90 150.555 195.556)" fill="#CFD9E2"/>
<rect x="110.555" y="195.556" width="4.44444" height="4.44444" rx="2.22222" transform="rotate(90 110.555 195.556)" fill="#CFD9E2"/>
<rect x="70.5547" y="195.556" width="4.44444" height="4.44444" rx="2.22222" transform="rotate(90 70.5547 195.556)" fill="#CFD9E2"/>
<rect x="30.5547" y="195.556" width="4.44444" height="4.44444" rx="2.22222" transform="rotate(90 30.5547 195.556)" fill="#CFD9E2"/>
<g clip-path="url(#clip1)" filter="url(#filter0_d)">
<path d="M105.515 166.667H76.1675C74.2972 166.667 72.7812 165.245 72.7812 163.492V125.397C72.7812 123.643 74.2972 122.222 76.1675 122.222H97.6137L108.901 132.804V163.492C108.901 165.245 107.385 166.667 105.515 166.667Z" fill="#728192"/>
<path d="M108.901 132.804H97.6133V122.222L108.901 132.804Z" fill="#B3C0CF"/>
<path d="M97.6133 132.804L108.901 143.386V132.804H97.6133Z" fill="#728192"/>
<g clip-path="url(#clip2)">
<path d="M102.226 166.111H100.559C100.194 166.111 99.833 166.039 99.496 165.899C99.159 165.76 98.8528 165.555 98.5948 165.297C98.0739 164.776 97.7812 164.07 97.7812 163.333C97.7812 162.596 98.0739 161.89 98.5948 161.369C99.1158 160.848 99.8223 160.555 100.559 160.555H102.226M105.559 160.555H107.226C107.59 160.555 107.952 160.627 108.289 160.767C108.626 160.906 108.932 161.111 109.19 161.369C109.448 161.627 109.652 161.933 109.792 162.27C109.932 162.607 110.003 162.968 110.003 163.333C110.003 163.698 109.932 164.059 109.792 164.396C109.652 164.733 109.448 165.039 109.19 165.297C108.932 165.555 108.626 165.76 108.289 165.899C107.952 166.039 107.59 166.111 107.226 166.111H105.559V160.555Z" stroke="#FFFFFE" stroke-width="1.77778" stroke-linecap="round" stroke-linejoin="round"/>
<path d="M101.672 163.333H106.116" stroke="#FFFFFE" stroke-width="1.77778" stroke-linecap="round" stroke-linejoin="round"/>
</g>
<path d="M88.368 141.132C92.5236 141.132 95.8923 140.009 95.8923 138.624C95.8923 137.239 92.5236 136.116 88.368 136.116C84.2125 136.116 80.8438 137.239 80.8438 138.624C80.8438 140.009 84.2125 141.132 88.368 141.132Z" stroke="#FFFFFE" stroke-width="1.77778" stroke-linecap="round" stroke-linejoin="round"/>
<path d="M95.8923 144.477C95.8923 145.865 92.5482 146.985 88.368 146.985C84.1879 146.985 80.8438 145.865 80.8438 144.477" stroke="#FFFFFE" stroke-width="1.77778" stroke-linecap="round" stroke-linejoin="round"/>
<path d="M80.8438 138.625V150.329C80.8438 151.717 84.1879 152.837 88.368 152.837C92.5482 152.837 95.8923 151.717 95.8923 150.329V138.625" stroke="#FFFFFE" stroke-width="1.77778" stroke-linecap="round" stroke-linejoin="round"/>
<path d="M97.9366 157.844C101.187 157.844 103.823 155.208 103.823 151.958C103.823 148.707 101.187 146.072 97.9366 146.072C94.686 146.072 92.0508 148.707 92.0508 151.958C92.0508 155.208 94.686 157.844 97.9366 157.844Z" fill="#728192"/>
<path d="M97.9375 149.603V154.312" stroke="#FFFFFE" stroke-width="1.77778" stroke-linecap="round" stroke-linejoin="round"/>
<path d="M95.582 151.958H100.291" stroke="#FFFFFE" stroke-width="1.77778" stroke-linecap="round" stroke-linejoin="round"/>
</g>
<g clip-path="url(#clip3)" filter="url(#filter1_d)">
<path d="M221.07 166.667H191.722C189.852 166.667 188.336 165.245 188.336 163.492V125.397C188.336 123.643 189.852 122.222 191.722 122.222H213.168L224.456 132.804V163.492C224.456 165.245 222.94 166.667 221.07 166.667Z" fill="#F6A609"/>
<path d="M224.455 132.804H213.168V122.222L224.455 132.804Z" fill="#FFC613"/>
<path d="M213.168 132.804L224.455 143.386V132.804H213.168Z" fill="#F6A609"/>
<path d="M198.536 147.824L200.017 145.101H201.889L199.588 149.018L201.948 153H200.055L198.536 150.233L197.017 153H195.123L197.483 149.018L195.183 145.101H197.055L198.536 147.824ZM205.011 145.101L207.04 150.83L209.058 145.101H211.196V153H209.563V150.841L209.725 147.113L207.593 153H206.476L204.349 147.119L204.512 150.841V153H202.884V145.101H205.011ZM214.356 151.692H217.812V153H212.728V145.101H214.356V151.692Z" fill="#FFFFFE"/>
<path d="M221.672 166.667L225.005 163.333L221.672 160" stroke="#FFFFFE" stroke-width="1.77778" stroke-linecap="round" stroke-linejoin="round"/>
<path d="M217.224 160L213.891 163.333L217.224 166.667" stroke="#FFFFFE" stroke-width="1.77778" stroke-linecap="round" stroke-linejoin="round"/>
</g>
<g clip-path="url(#clip4)" filter="url(#filter2_d)">
<path d="M47.7337 77.7774H18.3862C16.5159 77.7774 15 76.3563 15 74.6028V36.5076C15 34.7542 16.5159 33.333 18.3862 33.333H39.8324L51.1199 43.915V74.6028C51.1199 76.3563 49.604 77.7774 47.7337 77.7774Z" fill="#8F668A"/>
<path d="M51.1195 43.9145H39.832V33.3325L51.1195 43.9145Z" fill="#E2E8FF"/>
<path d="M39.832 43.9146L51.1195 54.4966V43.9146H39.832Z" fill="#8F668A"/>
<g clip-path="url(#clip5)">
<path d="M44.4444 77.2216H42.7778C42.413 77.2216 42.0518 77.1497 41.7148 77.0101C41.3778 76.8705 41.0715 76.6659 40.8136 76.408C40.2927 75.887 40 75.1805 40 74.4438C40 73.7071 40.2927 73.0005 40.8136 72.4796C41.3345 71.9587 42.0411 71.666 42.7778 71.666H44.4444M47.7778 71.666H49.4444C49.8092 71.666 50.1704 71.7379 50.5075 71.8775C50.8445 72.0171 51.1507 72.2217 51.4086 72.4796C51.6666 72.7375 51.8712 73.0438 52.0108 73.3808C52.1504 73.7178 52.2222 74.079 52.2222 74.4438C52.2222 74.8086 52.1504 75.1698 52.0108 75.5068C51.8712 75.8438 51.6666 76.15 51.4086 76.408C51.1507 76.6659 50.8445 76.8705 50.5075 77.0101C50.1704 77.1497 49.8092 77.2216 49.4444 77.2216H47.7778V71.666Z" stroke="#FFFFFE" stroke-width="1.77778" stroke-linecap="round" stroke-linejoin="round"/>
<path d="M43.8906 74.4438H48.3351" stroke="#FFFFFE" stroke-width="1.77778" stroke-linecap="round" stroke-linejoin="round"/>
</g>
<path d="M37.2209 60.555V59.4439C37.2209 58.8545 36.9868 58.2893 36.57 57.8726C36.1533 57.4558 35.5881 57.2217 34.9987 57.2217H30.5543C29.9649 57.2217 29.3997 57.4558 28.9829 57.8726C28.5662 58.2893 28.332 58.8545 28.332 59.4439V60.555" stroke="#FFFFFE" stroke-width="1.77778" stroke-linecap="round" stroke-linejoin="round"/>
<path d="M32.7769 54.9991C34.0042 54.9991 34.9991 54.0042 34.9991 52.7769C34.9991 51.5496 34.0042 50.5547 32.7769 50.5547C31.5496 50.5547 30.5547 51.5496 30.5547 52.7769C30.5547 54.0042 31.5496 54.9991 32.7769 54.9991Z" stroke="#FFFFFE" stroke-width="1.77778" stroke-linecap="round" stroke-linejoin="round"/>
</g>
<g clip-path="url(#clip6)" filter="url(#filter3_d)">
<path d="M163.292 77.7779H133.945C132.075 77.7779 130.559 76.3568 130.559 74.6033V36.5081C130.559 34.7547 132.075 33.3335 133.945 33.3335H155.391L166.679 43.9155V74.6033C166.679 76.3568 165.163 77.7779 163.292 77.7779Z" fill="#069BA2"/>
<path d="M166.678 43.9155H155.391V33.3335L166.678 43.9155Z" fill="#66B8B4"/>
<path d="M155.391 43.9155L166.678 54.4975V43.9155H155.391Z" fill="#069BA2"/>
<path d="M144.133 61.48C144.072 62.33 143.757 62.9991 143.189 63.4874C142.625 63.9757 141.88 64.2198 140.954 64.2198C139.941 64.2198 139.144 63.8798 138.561 63.1999C137.982 62.5163 137.693 61.5795 137.693 60.3895V59.9067C137.693 59.1471 137.827 58.478 138.095 57.8993C138.362 57.3206 138.744 56.8775 139.239 56.5701C139.738 56.259 140.317 56.1035 140.975 56.1035C141.887 56.1035 142.621 56.3477 143.178 56.8359C143.735 57.3242 144.057 58.0096 144.144 58.8921H142.516C142.476 58.3822 142.334 58.0132 142.088 57.7854C141.845 57.5539 141.475 57.4382 140.975 57.4382C140.433 57.4382 140.026 57.6335 139.755 58.0241C139.487 58.4111 139.35 59.0133 139.342 59.8307V60.4275C139.342 61.2811 139.471 61.905 139.728 62.2993C139.988 62.6935 140.397 62.8906 140.954 62.8906C141.457 62.8906 141.831 62.7767 142.077 62.5488C142.326 62.3173 142.469 61.9611 142.505 61.48H144.133ZM149.409 62.0388C149.409 61.7314 149.301 61.4963 149.084 61.3336C148.867 61.1672 148.476 60.9936 147.912 60.8127C147.347 60.6283 146.901 60.4474 146.572 60.2702C145.675 59.7855 145.226 59.1327 145.226 58.3116C145.226 57.8848 145.345 57.5051 145.584 57.1723C145.827 56.8359 146.172 56.5737 146.62 56.3856C147.073 56.1976 147.579 56.1035 148.14 56.1035C148.704 56.1035 149.207 56.2066 149.648 56.4128C150.089 56.6153 150.431 56.9029 150.673 57.2754C150.919 57.6479 151.042 58.0711 151.042 58.5449H149.414C149.414 58.1832 149.301 57.9029 149.073 57.704C148.845 57.5014 148.525 57.4002 148.112 57.4002C147.715 57.4002 147.405 57.4852 147.185 57.6552C146.964 57.8215 146.854 58.0422 146.854 58.3171C146.854 58.5739 146.982 58.7891 147.239 58.9627C147.499 59.1363 147.881 59.299 148.384 59.451C149.31 59.7295 149.984 60.0749 150.407 60.4872C150.831 60.8995 151.042 61.4131 151.042 62.028C151.042 62.7116 150.783 63.2487 150.266 63.6393C149.749 64.0263 149.053 64.2198 148.178 64.2198C147.57 64.2198 147.016 64.1095 146.517 63.8889C146.018 63.6646 145.637 63.359 145.373 62.972C145.112 62.585 144.982 62.1365 144.982 61.6265H146.615C146.615 62.4982 147.136 62.934 148.178 62.934C148.565 62.934 148.867 62.8563 149.084 62.7007C149.301 62.5416 149.409 62.321 149.409 62.0388ZM155.179 62.1528L156.969 56.212H158.781L156.031 64.1113H154.332L151.593 56.212H153.399L155.179 62.1528Z" fill="#FFFFFE"/>
<g clip-path="url(#clip7)">
<path d="M160.003 77.2221H158.336C157.972 77.2221 157.61 77.1502 157.273 77.0106C156.936 76.871 156.63 76.6664 156.372 76.4085C155.851 75.8875 155.559 75.181 155.559 74.4443C155.559 73.7076 155.851 73.001 156.372 72.4801C156.893 71.9592 157.6 71.6665 158.336 71.6665H160.003M163.336 71.6665H165.003C165.368 71.6665 165.729 71.7384 166.066 71.8779C166.403 72.0175 166.709 72.2222 166.967 72.4801C167.225 72.738 167.43 73.0443 167.569 73.3813C167.709 73.7183 167.781 74.0795 167.781 74.4443C167.781 74.8091 167.709 75.1703 167.569 75.5073C167.43 75.8443 167.225 76.1505 166.967 76.4085C166.709 76.6664 166.403 76.871 166.066 77.0106C165.729 77.1502 165.368 77.2221 165.003 77.2221H163.336V71.6665Z" stroke="#FFFFFE" stroke-width="1.77778" stroke-linecap="round" stroke-linejoin="round"/>
<path d="M159.449 74.4443H163.894" stroke="#FFFFFE" stroke-width="1.77778" stroke-linecap="round" stroke-linejoin="round"/>
</g>
</g>
<g clip-path="url(#clip8)" filter="url(#filter4_d)">
<path d="M278.847 77.7774H249.5C247.629 77.7774 246.113 76.3563 246.113 74.6028V36.5076C246.113 34.7542 247.629 33.333 249.5 33.333H270.946L282.233 43.915V74.6028C282.233 76.3563 280.717 77.7774 278.847 77.7774Z" fill="#47BE8A"/>
<path d="M282.233 43.9145H270.945V33.3325L282.233 43.9145Z" fill="#6ED7BF"/>
<path d="M270.945 43.9146L282.233 54.4966V43.9146H270.945Z" fill="#47BE8A"/>
<path d="M272.072 54.4966H256.269H254.012V56.613V58.7294V60.8458V62.9622V65.0786V67.195V69.3114H274.329V67.195V65.0786V62.9622V60.8458V58.7294V56.613V54.4966H272.072ZM256.269 56.613H260.784V58.7294H256.269V56.613ZM256.269 60.8458H260.784V62.9622H256.269V60.8458ZM256.269 65.0786H260.784V67.195H256.269V65.0786ZM272.072 67.195H263.042V65.0786H272.072V67.195ZM272.072 62.9622H263.042V60.8458H272.072V62.9622ZM272.072 58.7294H263.042V56.613H272.072V58.7294Z" fill="#F5F5F5"/>
</g>
</g>
<defs>
<filter id="filter0_d" x="-16.1076" y="77.7777" width="213.333" height="222.222" filterUnits="userSpaceOnUse" color-interpolation-filters="sRGB">
<feFlood flood-opacity="0" result="BackgroundImageFix"/>
<feColorMatrix in="SourceAlpha" type="matrix" values="0 0 0 0 0 0 0 0 0 0 0 0 0 0 0 0 0 0 127 0"/>
<feOffset dy="44.4444"/>
<feGaussianBlur stdDeviation="44.4444"/>
<feColorMatrix type="matrix" values="0 0 0 0 0.176471 0 0 0 0 0.227451 0 0 0 0 0.282353 0 0 0 0.08 0"/>
<feBlend mode="multiply" in2="BackgroundImageFix" result="effect1_dropShadow"/>
<feBlend mode="normal" in="SourceGraphic" in2="effect1_dropShadow" result="shape"/>
</filter>
<filter id="filter1_d" x="99.4471" y="77.7777" width="213.333" height="222.222" filterUnits="userSpaceOnUse" color-interpolation-filters="sRGB">
<feFlood flood-opacity="0" result="BackgroundImageFix"/>
<feColorMatrix in="SourceAlpha" type="matrix" values="0 0 0 0 0 0 0 0 0 0 0 0 0 0 0 0 0 0 127 0"/>
<feOffset dy="44.4444"/>
<feGaussianBlur stdDeviation="44.4444"/>
<feColorMatrix type="matrix" values="0 0 0 0 0.176471 0 0 0 0 0.227451 0 0 0 0 0.282353 0 0 0 0.08 0"/>
<feBlend mode="multiply" in2="BackgroundImageFix" result="effect1_dropShadow"/>
<feBlend mode="normal" in="SourceGraphic" in2="effect1_dropShadow" result="shape"/>
</filter>
<filter id="filter2_d" x="-73.8889" y="-11.1114" width="213.333" height="222.222" filterUnits="userSpaceOnUse" color-interpolation-filters="sRGB">
<feFlood flood-opacity="0" result="BackgroundImageFix"/>
<feColorMatrix in="SourceAlpha" type="matrix" values="0 0 0 0 0 0 0 0 0 0 0 0 0 0 0 0 0 0 127 0"/>
<feOffset dy="44.4444"/>
<feGaussianBlur stdDeviation="44.4444"/>
<feColorMatrix type="matrix" values="0 0 0 0 0.176471 0 0 0 0 0.227451 0 0 0 0 0.282353 0 0 0 0.08 0"/>
<feBlend mode="multiply" in2="BackgroundImageFix" result="effect1_dropShadow"/>
<feBlend mode="normal" in="SourceGraphic" in2="effect1_dropShadow" result="shape"/>
</filter>
<filter id="filter3_d" x="41.6697" y="-11.1109" width="213.333" height="222.222" filterUnits="userSpaceOnUse" color-interpolation-filters="sRGB">
<feFlood flood-opacity="0" result="BackgroundImageFix"/>
<feColorMatrix in="SourceAlpha" type="matrix" values="0 0 0 0 0 0 0 0 0 0 0 0 0 0 0 0 0 0 127 0"/>
<feOffset dy="44.4444"/>
<feGaussianBlur stdDeviation="44.4444"/>
<feColorMatrix type="matrix" values="0 0 0 0 0.176471 0 0 0 0 0.227451 0 0 0 0 0.282353 0 0 0 0.08 0"/>
<feBlend mode="multiply" in2="BackgroundImageFix" result="effect1_dropShadow"/>
<feBlend mode="normal" in="SourceGraphic" in2="effect1_dropShadow" result="shape"/>
</filter>
<filter id="filter4_d" x="157.224" y="-11.1114" width="213.333" height="222.222" filterUnits="userSpaceOnUse" color-interpolation-filters="sRGB">
<feFlood flood-opacity="0" result="BackgroundImageFix"/>
<feColorMatrix in="SourceAlpha" type="matrix" values="0 0 0 0 0 0 0 0 0 0 0 0 0 0 0 0 0 0 127 0"/>
<feOffset dy="44.4444"/>
<feGaussianBlur stdDeviation="44.4444"/>
<feColorMatrix type="matrix" values="0 0 0 0 0.176471 0 0 0 0 0.227451 0 0 0 0 0.282353 0 0 0 0.08 0"/>
<feBlend mode="multiply" in2="BackgroundImageFix" result="effect1_dropShadow"/>
<feBlend mode="normal" in="SourceGraphic" in2="effect1_dropShadow" result="shape"/>
</filter>
<clipPath id="clip0">
<rect width="296" height="200" fill="white"/>
</clipPath>
<clipPath id="clip1">
<rect width="35.5556" height="44.4444" fill="white" transform="translate(72.7812 122.222)"/>
</clipPath>
<clipPath id="clip2">
<rect width="13.3333" height="13.3333" fill="white" transform="translate(97.2266 156.667)"/>
</clipPath>
<clipPath id="clip3">
<rect width="35.5556" height="44.4444" fill="white" transform="translate(188.336 122.222)"/>
</clipPath>
<clipPath id="clip4">
<rect width="35.5556" height="44.4444" fill="white" transform="translate(15 33.333)"/>
</clipPath>
<clipPath id="clip5">
<rect width="13.3333" height="13.3333" fill="white" transform="translate(39.4453 67.7773)"/>
</clipPath>
<clipPath id="clip6">
<rect width="35.5556" height="44.4444" fill="white" transform="translate(130.559 33.3335)"/>
</clipPath>
<clipPath id="clip7">
<rect width="13.3333" height="13.3333" fill="white" transform="translate(155.004 67.7778)"/>
</clipPath>
<clipPath id="clip8">
<rect width="35.5556" height="44.4444" fill="white" transform="translate(246.113 33.333)"/>
</clipPath>
</defs>
</svg>
