<svg width="24" height="24" viewBox="0 0 24 24" fill="none" xmlns="http://www.w3.org/2000/svg">
<path d="M14 2H6C5.46957 2 4.96086 2.21071 4.58579 2.58579C4.21071 2.96086 4 3.46957 4 4V20C4 20.5304 4.21071 21.0391 4.58579 21.4142C4.96086 21.7893 5.46957 22 6 22H18C18.5304 22 19.0391 21.7893 19.4142 21.4142C19.7893 21.0391 20 20.5304 20 20V8L14 2Z" stroke="#069BA2" stroke-width="1.6" stroke-linecap="round" stroke-linejoin="round"/>
<path d="M13.668 17L16.168 14.5L13.668 12" stroke="#069BA2" stroke-width="1.6" stroke-linecap="round" stroke-linejoin="round"/>
<path d="M10.332 12L7.83203 14.5L10.332 17" stroke="#069BA2" stroke-width="1.6" stroke-linecap="round" stroke-linejoin="round"/>
<path d="M14 2V8H20" stroke="#069BA2" stroke-width="1.6" stroke-linecap="round" stroke-linejoin="round"/>
</svg>
