<svg width="160" height="93" viewBox="0 0 160 93" fill="none" xmlns="http://www.w3.org/2000/svg">
<path d="M51.0078 14.8831C51.1411 14.5595 51.0649 14.6547 51.0839 14.7213C53.5967 25.8861 50.8175 24.5631 62.0013 22.136L51.0078 14.8831Z" fill="#66AEAA"/>
<path d="M64.9122 23.9636C61.6094 24.6394 58.6018 25.2867 55.5941 25.8673C52.5863 26.4479 51.0158 25.4675 50.34 22.555C49.6166 19.4711 49.0361 16.3491 48.3317 12.894L39.4322 14.7215C31.0562 16.4443 22.6708 18.1481 14.2948 19.9089C10.3353 20.737 9.64999 21.8125 10.4876 25.7245C14.5614 45.6047 18.6478 65.4849 22.747 85.3652C23.4703 88.8869 24.6505 89.6674 28.1627 88.9535C42.8778 85.9268 57.5928 82.8968 72.3079 79.8636C75.4679 79.2164 76.2293 78.1599 75.6201 75.1046C72.2507 58.6065 68.8623 42.1369 65.4548 25.696C65.3311 25.2581 65.1787 24.8012 64.9122 23.9636ZM43.3917 51.4711C38.5375 52.4705 33.6928 53.546 28.8195 54.4026C27.7821 54.5835 26.5923 53.9172 25.4787 53.6507C26.3734 52.9559 27.1824 51.8423 28.1818 51.6233C37.8712 49.523 47.5829 47.5242 57.3168 45.6269C58.2686 45.4366 59.3918 46.0077 60.4292 46.2171C59.6107 46.969 58.8873 48.1683 57.9355 48.3967C53.1193 49.5579 48.246 50.4717 43.3917 51.4711ZM45.5333 62.0362C40.5649 63.0642 35.6059 64.1588 30.6184 65.0344C29.6665 65.1962 28.6481 64.4823 27.6487 64.1682C28.3911 63.5401 29.048 62.5312 29.8856 62.3503C39.8986 60.1992 49.9339 58.1401 59.9914 56.173C60.8005 56.0112 61.7808 56.7537 62.685 57.0773C61.9331 57.715 61.2763 58.7144 60.4292 58.9143C55.4893 60.0565 50.5018 61.0178 45.5333 62.0362ZM47.7035 72.6108C42.735 73.6293 37.776 74.7239 32.7885 75.6091C31.8367 75.7709 30.8088 75.0475 29.8189 74.7334C30.5708 74.1147 31.2466 73.1153 32.0937 72.9345C42.0116 70.7961 51.9517 68.7528 61.914 66.8048C62.8087 66.6335 63.8844 67.3854 64.8742 67.6995C64.0271 68.3372 63.2561 69.3176 62.3138 69.546C57.4691 70.6787 52.5768 71.6114 47.7035 72.6108ZM40.089 38.0695C45.2573 37.0035 50.4067 35.8804 55.5941 34.9476C56.4126 34.7953 57.3834 35.5377 58.2877 35.8994C57.5548 36.5561 56.917 37.6317 56.0794 37.803C46.0536 39.9605 36.0121 42.0195 25.9546 43.9803C25.155 44.1421 24.1746 43.3426 23.2799 43.0285C24.0033 42.4003 24.6506 41.3914 25.4787 41.1915C30.3615 40.0017 35.2538 39.0594 40.1271 38.0695H40.089ZM33.5214 31.4068C30.2186 32.0826 26.9348 32.8726 23.6035 33.3676C22.7088 33.5008 21.6999 32.7394 20.7481 32.4158C21.5 31.7971 22.1663 30.8167 23.0134 30.6263C29.6951 29.1352 36.3959 27.7487 43.1157 26.4669C43.9913 26.3051 45.0193 27.0951 45.9711 27.4187C45.2192 28.0469 44.5624 29.0368 43.7058 29.2462C40.4316 30.0553 36.967 30.6644 33.5595 31.3497L33.5214 31.4068Z" fill="#66AEAA"/>
<path d="M39.0898 23.6017C39.0898 23.6017 71.4516 -21.3619 123.03 15.5494" stroke="#F7DC94" stroke-width="1.90363" stroke-miterlimit="10" stroke-dasharray="7.61 7.61"/>
<path d="M124.659 13.103L121.395 17.9002L127.162 18.5189L124.659 13.103Z" fill="#F7DC94"/>
<path d="M120.195 80.4153L120.823 75.0757L115.816 77.0364L120.195 80.4153Z" fill="#F7DC94"/>
<path d="M41.0234 69.2886C41.0234 69.2886 70.0157 111.644 118.587 78.6163" stroke="#F7DC94" stroke-width="1.90363" stroke-miterlimit="10" stroke-dasharray="7.61 7.61"/>
<path d="M12.3736 34.6046C19.2073 34.6046 24.7472 29.0647 24.7472 22.231C24.7472 15.3973 19.2073 9.85742 12.3736 9.85742C5.53984 9.85742 0 15.3973 0 22.231C0 29.0647 5.53984 34.6046 12.3736 34.6046Z" fill="white" stroke="#66AEAA" stroke-width="0.951814" stroke-miterlimit="10"/>
<path d="M11.9447 28.0088C9.98658 27.7463 8.16818 26.8505 6.76684 25.4579C5.83704 24.6077 5.01263 23.6491 4.31121 22.6025C3.95904 22.079 3.97807 21.8506 4.42542 21.3937C6.09662 19.5172 8.28028 18.1705 10.7074 17.5198C11.7701 17.2883 12.8712 17.2972 13.9301 17.5459C14.989 17.7945 15.9788 18.2767 16.8275 18.957C18.2482 20.0104 19.4725 21.3056 20.4444 22.7833C20.6633 23.1069 20.768 23.4496 20.4444 23.7351C18.5927 25.9259 16.0404 27.4089 13.2202 27.9326C12.9612 27.9659 12.7006 27.9849 12.4396 27.9897L11.9447 28.0088ZM12.1732 26.7333C12.7136 26.7724 13.2567 26.7242 13.7817 26.5906C15.7679 26.0228 17.5699 24.9429 19.0072 23.4591C19.2356 23.2592 19.1404 23.107 19.0072 22.9166C18.1812 21.7671 17.179 20.7553 16.0375 19.9184C15.2496 19.2793 14.3137 18.8485 13.3158 18.6655C12.3179 18.4826 11.29 18.5534 10.3266 18.8714C8.60907 19.4748 7.04589 20.4498 5.74846 21.7268C5.70247 21.7652 5.66543 21.8133 5.64005 21.8675C5.61467 21.9218 5.60148 21.981 5.60148 22.0409C5.60148 22.1008 5.61467 22.16 5.64005 22.2143C5.66543 22.2686 5.70247 22.3166 5.74846 22.355C6.35483 23.1956 7.05757 23.9623 7.8424 24.6394C9.00928 25.8047 10.5351 26.5425 12.1732 26.7333Z" fill="#66AEAA"/>
<path d="M9.02417 22.3738C9.08211 21.7102 9.33601 21.0788 9.7536 20.5598C10.1712 20.0408 10.7336 19.6576 11.3694 19.459C12.0053 19.2604 12.6859 19.2552 13.3246 19.4442C13.9634 19.6332 14.5316 20.0078 14.957 20.5204C15.3824 21.033 15.6457 21.6605 15.7137 22.3232C15.7817 22.9859 15.6511 23.6538 15.3386 24.2421C15.0262 24.8304 14.5459 25.3125 13.9588 25.6273C13.3717 25.942 12.7044 26.0751 12.0415 26.0097C11.167 25.909 10.3652 25.4746 9.80309 24.7973C9.241 24.1199 8.96199 23.2518 9.02417 22.3738ZM14.4399 22.8497C14.473 22.5758 14.4491 22.298 14.3695 22.0338C14.29 21.7696 14.1566 21.5248 13.9777 21.3147C13.7989 21.1045 13.5785 20.9337 13.3305 20.813C13.0824 20.6922 12.812 20.6241 12.5363 20.6129C12.1299 20.5825 11.7237 20.673 11.3686 20.873C11.0135 21.073 10.7255 21.3735 10.5409 21.7368C10.3563 22.1001 10.2832 22.5099 10.3309 22.9147C10.3787 23.3194 10.5452 23.7009 10.8093 24.0113C11.0734 24.3216 11.4234 24.5469 11.8152 24.6587C12.2071 24.7706 12.6234 24.764 13.0115 24.6398C13.3997 24.5156 13.7424 24.2794 13.9966 23.9609C14.2507 23.6423 14.405 23.2557 14.4399 22.8497Z" fill="#66AEAA"/>
<path d="M160 15.9873H43.8789V75.9516H160V15.9873Z" fill="#DCF1EB" stroke="#6ECDBA" stroke-width="0.951814" stroke-miterlimit="10"/>
<path d="M155.241 21.6982H49.5898V69.9267H155.241V21.6982Z" fill="white" stroke="#CCD1FD" stroke-width="0.951814" stroke-miterlimit="10"/>
<path d="M101.768 28.5796H61.0781V64.1774H101.768V28.5796Z" fill="#F7DC94"/>
<path d="M107.688 31.1309H142.448" stroke="#66AEAA" stroke-width="0.951814" stroke-miterlimit="10"/>
<path d="M108.117 38.3354H127.61" stroke="#66AEAA" stroke-width="0.951814" stroke-miterlimit="10"/>
<path d="M76.8635 47.6593L73.6541 47.6232L72.9133 49.6144L71.8715 49.6027L74.8734 41.975L75.7573 41.9849L78.6113 49.6784L77.5748 49.6668L76.8635 47.6593ZM73.9675 46.7953L76.5719 46.8246L75.3029 43.2269L73.9675 46.7953ZM72.4834 62.6104L72.56 54.9498L74.7224 54.9741C75.3888 54.9816 75.9766 55.1355 76.4858 55.4359C76.995 55.7363 77.3854 56.1599 77.657 56.7067C77.9322 57.2535 78.068 57.8795 78.0645 58.5845L78.0596 59.0739C78.0523 59.7964 77.9057 60.428 77.6197 60.9685C77.3371 61.5091 76.9348 61.922 76.4128 62.2073C75.8943 62.4926 75.2913 62.6349 74.6037 62.6342L72.4834 62.6104ZM73.5619 55.7925L73.5018 61.7957L74.5646 61.8077C75.3433 61.8164 75.9508 61.5812 76.387 61.102C76.8268 60.6228 77.0512 59.936 77.0601 59.0416L77.0646 58.5944C77.0733 57.7245 76.8749 57.047 76.4693 56.5618C76.0672 56.0732 75.4909 55.8211 74.7404 55.8057L73.5619 55.7925Z" fill="white"/>
<path d="M142.447 50.6235H108.543V64.1869H142.447V50.6235Z" fill="#A8D2CF"/>
</svg>
